Appalachicola exploration
…
anomcmp

## # A tibble: 4 x 3
##   name     var     val
##   <chr>    <chr> <dbl>
## 1 Observed Pg    15.8 
## 2 Detided  Pg     8.54
## 3 Observed Rt    13.3 
## 4 Detided  Rt     5.96

anommos

## # A tibble: 48 x 4
##    name     month var     val
##    <chr>    <chr> <chr> <dbl>
##  1 Observed 01    Pg    23.0 
##  2 Observed 02    Pg    19.2 
##  3 Observed 03    Pg    23.9 
##  4 Observed 04    Pg    23.1 
##  5 Observed 05    Pg    14.7 
##  6 Observed 06    Pg    13.0 
##  7 Observed 07    Pg    13.6 
##  8 Observed 08    Pg     9.43
##  9 Observed 09    Pg    10.3 
## 10 Observed 10    Pg    11.5 
## # ... with 38 more rows
…
  mutate(
    mo = month(Date)
  ) %>% 
  select(matches('name|mo|^Pg$|^Rt$')) %>% 
  gather('var', 'val', -name, -mo) %>% 
  group_by(name, mo, var) %>% 
  summarise(
    ecomean = mean(val, na.rm = T), 
    ecolo = t.test(val)$conf.int[1],
    ecohi = t.test(val)$conf.int[2], 
    .groups = 'drop'
  )
apaecosum

## # A tibble: 48 x 6
##    name       mo var   ecomean  ecolo  ecohi
##    <chr>   <dbl> <chr>   <dbl>  <dbl>  <dbl>
##  1 Detided     1 Pg       40.9   35.1   46.7
##  2 Detided     1 Rt      -43.9  -48.9  -38.9
##  3 Detided     2 Pg       59.2   53.2   65.3
##  4 Detided     2 Rt      -64.1  -70.5  -57.7
##  5 Detided     3 Pg       52.2   44.7   59.8
##  6 Detided     3 Rt      -66.4  -73.6  -59.2
##  7 Detided     4 Pg       73.6   67.0   80.1
##  8 Detided     4 Rt      -89.5  -95.8  -83.2
##  9 Detided     5 Pg      112.   104.   119. 
## 10 Detided     5 Rt     -123.  -130.  -115. 
## # ... with 38 more rows
…
We can dig deeper to evaluate associations of production with PAR, both to evaluate differences in detided and observed DO and to understand the potential role of daily PAR intensity with anomalies. First we summarize PAR on the daily scale to combine with the metabolism estimates. For the weighted regression results, theres a column called solar_period that indicated whether a time step was during the night (sunset) or day (sunrise). We filter only the sunrise time period, then take the average within each day.

apapar <- apadtd %>% 
  filter(solar_period == 'sunrise') %>% 
  mutate(
    Date = as.Date(DateTimeStamp)
  ) %>% 
  group_by(Date) %>% 
  summarise(
    `PAR mean` = mean(PAR, na.rm = T) * day_hrs * 4, # convert PAR to mmol/m2/d (hourly obs is mmol/m2/0.25hr, so x 4 x day hours) 
    .groups = 'drop'
  )
apapar

## # A tibble: 58,636 x 2
##    Date       `PAR mean`
##    <date>          <dbl>
##  1 2006-01-01      8141.
##  2 2006-01-01      8141.
##  3 2006-01-01      8141.
##  4 2006-01-01      8141.
##  5 2006-01-01      8141.
##  6 2006-01-01      8141.
##  7 2006-01-01      8141.
##  8 2006-01-01      8141.
##  9 2006-01-01      8141.
## 10 2006-01-01      8141.
## # ... with 58,626 more rows
…
Now we combine with the metabolism observed and detided metabolism estimates.

apaeco <- list(
    Observed = apaobseco,
    Detided = apadtdeco
  ) %>% 
  enframe %>% 
  unnest('value') %>% 
  left_join(apapar, by = 'Date')
apaeco

## # A tibble: 117,314 x 8
##    name     Date          Pg    Rt   NEM Pg_vol Rt_vol `PAR mean`
##    <chr>    <date>     <dbl> <dbl> <dbl>  <dbl>  <dbl>      <dbl>
##  1 Observed 2005-12-31   NA    NA   NA     NA     NA          NA 
##  2 Observed 2006-01-01  118. -168. -49.2   54.6  -77.2      8141.
##  3 Observed 2006-01-01  118. -168. -49.2   54.6  -77.2      8141.
##  4 Observed 2006-01-01  118. -168. -49.2   54.6  -77.2      8141.
##  5 Observed 2006-01-01  118. -168. -49.2   54.6  -77.2      8141.
##  6 Observed 2006-01-01  118. -168. -49.2   54.6  -77.2      8141.
##  7 Observed 2006-01-01  118. -168. -49.2   54.6  -77.2      8141.
##  8 Observed 2006-01-01  118. -168. -49.2   54.6  -77.2      8141.
##  9 Observed 2006-01-01  118. -168. -49.2   54.6  -77.2      8141.
## 10 Observed 2006-01-01  118. -168. -49.2   54.6  -77.2      8141.
## # ... with 117,304 more rows
…
